[gd_scene load_steps=3 format=2]

[ext_resource path="res://Scenes/Dreams/Dream3A.tscn" type="PackedScene" id=1]
[ext_resource path="res://Aseprite/Dreams/SmallDreamA.png" type="Texture" id=2]

[node name="Dream2A" index="0" instance=ExtResource( 1 )]

[node name="Sprite" parent="." index="0"]
texture = ExtResource( 2 )

[node name="CollisionShape2D" parent="." index="1"]
polygon = PoolVector2Array( 6.63598, -14.7196, 15.9112, -11.6278, 15.4356, -3.77954, 9.01426, 18.3383, -9.06059, 18.3383, -9.77407, 3.83092, -14.5306, -9.01173 )
