[gd_scene load_steps=3 format=2]

[ext_resource path="res://Scenes/Dreams/Dream3A.tscn" type="PackedScene" id=1]
[ext_resource path="res://Aseprite/Dreams/MediumDreamB.png" type="Texture" id=2]

[node name="Dream3B" index="0" instance=ExtResource( 1 )]

[node name="Sprite" parent="." index="0"]
position = Vector2( 7.85686, -5.71605 )
texture = ExtResource( 2 )

[node name="CollisionShape2D" parent="." index="1"]
position = Vector2( 7.004, -6.32619 )
polygon = PoolVector2Array( 9.11736, -18.0108, 16.7992, 3.45303, 35.7777, 0.064003, 26.7403, 15.2017, 28.9997, 29.8875, 19.0585, 18.5907, -0.145996, 24.465, -23.1914, 23.5613, -41.0403, 13.6201, -43.7516, 4.13084, -33.5845, -15.7515, -18.8987, -24.7889 )
