[gd_scene load_steps=3 format=2]

[ext_resource path="res://Scenes/Dreams/Dream2A.tscn" type="PackedScene" id=1]
[ext_resource path="res://Aseprite/Dreams/SmallDreamC.png" type="Texture" id=2]

[node name="Dream2C" index="0" instance=ExtResource( 1 )]

[node name="Sprite" parent="." index="0"]
texture = ExtResource( 2 )

[node name="CollisionShape2D" parent="." index="1"]
polygon = PoolVector2Array( 0.928139, -12.5791, 19.9543, -10.6765, 21.1434, 10.2522, 5.92251, 11.4414, -13.1036, 15.9601, -19.7628, -8.06042 )
