[gd_scene load_steps=3 format=2]

[ext_resource path="res://Scenes/Dreams/Dream4A.tscn" type="PackedScene" id=1]
[ext_resource path="res://Aseprite/Dreams/MediumDreamA.png" type="Texture" id=2]

[node name="Dream3A" index="0" instance=ExtResource( 1 )]

[node name="Sprite" parent="." index="0"]
position = Vector2( 0.852864, 0.610142 )
texture = ExtResource( 2 )

[node name="CollisionShape2D" parent="." index="1"]
polygon = PoolVector2Array( 3.06858, -32.3188, 27.3269, -27.5622, 34.9374, -20.4274, 48.9692, -12.817, 46.1152, -7.58476, 23.046, -0.68779, 8.06295, 7.87398, -12.1523, 3.11743, -33.3189, 5.49571, -38.5511, 1.21483, -24.5193, -10.4387, -16.1954, -24.2327 )
