[gd_scene load_steps=5 format=2]

[ext_resource path="res://Scenes/Dreams/Nightmare4A.gd" type="Script" id=1]
[ext_resource path="res://Aseprite/Dreams/LargeNightmareA.png" type="Texture" id=2]

[sub_resource type="CircleShape2D" id=1]
radius = 53.6196

[sub_resource type="CircleShape2D" id=2]
radius = 42.461

[node name="Nightmare4A" type="KinematicBody2D"]
collision_layer = 4
collision_mask = 4
script = ExtResource( 1 )
SPEED = 15
damage = 30

[node name="Sprite" type="Sprite" parent="."]
modulate = Color( 1, 1, 1, 0.745098 )
position = Vector2( 0, -13.0489 )
z_index = 1
texture = ExtResource( 2 )

[node name="CollisionShape2D" type="CollisionShape2D" parent="."]
position = Vector2( 0, -13.0489 )
shape = SubResource( 1 )

[node name="HurtPlayer" type="Area2D" parent="."]

[node name="CollisionShape2D" type="CollisionShape2D" parent="HurtPlayer"]
position = Vector2( 0, -13.0489 )
shape = SubResource( 2 )
disabled = true

[node name="UntilMoving" type="Timer" parent="."]
wait_time = 2.0
one_shot = true
autostart = true
[connection signal="body_entered" from="HurtPlayer" to="." method="_on_HurtPlayer_body_entered"]
[connection signal="timeout" from="UntilMoving" to="." method="_on_UntilMoving_timeout"]
