[gd_scene load_steps=2 format=2]

[ext_resource path="res://Aseprite/Dreams/StainE.png" type="Texture" id=1]

[node name="StainE" type="Sprite"]
position = Vector2( -6.02277, 2.31647 )
z_index = -1
texture = ExtResource( 1 )
