[gd_scene load_steps=2 format=2]

[ext_resource path="res://Aseprite/Dreams/StainD.png" type="Texture" id=1]

[node name="StainD" type="Sprite"]
position = Vector2( 7.41268, -3.24303 )
z_index = -1
texture = ExtResource( 1 )
